…
# pivot from wider to longer
(song_long <- song_row |> 
    pivot_longer(
        cols = 10:ncol(df), 
        names_to = "Country", 
        values_to = "rank"
    ) |> 
    filter(!is.na(rank)) |> # filter empty rows
    arrange(rank) # sort by top rank first
)
```

    ## # A tibble: 33 × 11
    ##      Pos `P+`  Artist        Title  Days    Pk `(x?)`   Pts `Pts+` Country  rank
    ##    <dbl> <chr> <chr>         <chr> <dbl> <dbl> <chr>  <dbl>  <dbl> <chr>   <dbl>
    ##  1     2 =     "Alex Warren… " Or…   181     1 (x48)  16325    234 USA         1
    ##  2     2 =     "Alex Warren… " Or…   181     1 (x48)  16325    234 DEU         1
    ##  3     2 =     "Alex Warren… " Or…   181     1 (x48)  16325    234 CAN         1
    ##  4     2 =     "Alex Warren… " Or…   181     1 (x48)  16325    234 ITA         1
    ##  5     2 =     "Alex Warren… " Or…   181     1 (x48)  16325    234 ARE         1
    ##  6     2 =     "Alex Warren… " Or…   181     1 (x48)  16325    234 SVK         1
    ##  7     2 =     "Alex Warren… " Or…   181     1 (x48)  16325    234 UKR         1
    ##  8     2 =     "Alex Warren… " Or…   181     1 (x48)  16325    234 GBR         2
    ##  9     2 =     "Alex Warren… " Or…   181     1 (x48)  16325    234 AUS         2
    ## 10     2 =     "Alex Warren… " Or…   181     1 (x48)  16325    234 FRA         2
    ## # ℹ 23 more rows
…
