…
  select(weight, quarterly_tax, fuel_type) |> # select the required columns
  mutate(
    tax_band = factor(case_when( # create tax bands 
    quarterly_tax < 100 ~ "low",
    between(quarterly_tax, 100, 200) ~ "medium",
    quarterly_tax >= 200 ~ "high"), levels = c("low", "medium", "high"), ordered = TRUE),
    weight_bin = factor(case_when(  # additionally create weight bins
      weight < 1150 ~ "light",
      weight >= 1150 ~ "heavy"),
      levels = c("light", "heavy"), ordered = TRUE)
    )
  )
```

    ## # A tibble: 1,436 × 5
    ##    weight quarterly_tax fuel_type tax_band weight_bin
    ##     <dbl>         <dbl> <chr>     <ord>    <ord>     
    ##  1   1165           210 Diesel    high     heavy     
    ##  2   1165           210 Diesel    high     heavy     
    ##  3   1165           210 Diesel    high     heavy     
    ##  4   1165           210 Diesel    high     heavy     
    ##  5   1170           210 Diesel    high     heavy     
    ##  6   1170           210 Diesel    high     heavy     
    ##  7   1245           210 Diesel    high     heavy     
    ##  8   1245           210 Diesel    high     heavy     
    ##  9   1185           100 Petrol    medium   heavy     
    ## 10   1105           185 Diesel    medium   light     
    ## # ℹ 1,426 more rows
…
