…
    ## `summarise()` has grouped output by 'year'. You can override using the
    ## `.groups` argument.

``` r
diversity
```

    ## # A tibble: 138 × 2
    ##     year diversity
    ##    <dbl>     <dbl>
    ##  1  1880      8.16
    ##  2  1881      8.18
    ##  3  1882      8.25
    ##  4  1883      8.28
    ##  5  1884      8.36
    ##  6  1885      8.40
    ##  7  1886      8.43
    ##  8  1887      8.46
    ##  9  1888      8.52
    ## 10  1889      8.53
    ## # ℹ 128 more rows
…
numbers_data <- numbers_data %>%
mutate(across(all_of(numeric_cols), ~ as.numeric(.)))

# Sort by year (ascending order)
numbers_data <- numbers_data %>%
  arrange(Year) %>%
  filter(!is.na(Year)) |>  # Remove any rows without valid years
  pivot_longer(cols = -c(Year, Total_Foreign_Born, Region_Reported_Total), names_to = "Region", values_to = "Population") # pivot longer

numbers_data
```

    ## # A tibble: 91 × 5
    ##     Year Total_Foreign_Born Region_Reported_Total Region              Population
    ##    <dbl>              <dbl>                 <dbl> <chr>                    <dbl>
    ##  1  1850            2244602               2202625 Europe                 2031867
    ##  2  1850            2244602               2202625 Asia                      1135
    ##  3  1850            2244602               2202625 Africa                     551
    ##  4  1850            2244602               2202625 Oceania                    588
    ##  5  1850            2244602               2202625 Latin_America            20773
    ##  6  1850            2244602               2202625 Northern_America        147711
    ##  7  1850            2244602               2202625 Region_Not_Reported      41977
    ##  8  1860            4138697               4134809 Europe                 3807062
    ##  9  1860            4138697               4134809 Asia                     36796
    ## 10  1860            4138697               4134809 Africa                     526
    ## # ℹ 81 more rows
…
# Supplementary Analysis

``` r
top10 <- babynames |> 
    group_by(year, sex) |> 
    mutate(rank = rank(-n), total = sum(n)) |> 
    filter(rank <= 10) |> 
    summarize(top10_share = sum(n) / max(total), .groups = "drop") |> 
    group_by(year) |> 
    summarise(mean_share = mean(top10_share))
top10
```

    ## # A tibble: 138 × 2
    ##     year mean_share
    ##    <dbl>      <dbl>
    ##  1  1880      0.344
    ##  2  1881      0.340
    ##  3  1882      0.333
    ##  4  1883      0.330
    ##  5  1884      0.322
    ##  6  1885      0.317
    ##  7  1886      0.313
    ##  8  1887      0.299
    ##  9  1888      0.304
    ## 10  1889      0.301
    ## # ℹ 128 more rows

``` r
two_effect <- diversity |> 
    inner_join(top10, join_by(year))
two_effect
```

    ## # A tibble: 138 × 3
    ##     year diversity mean_share
    ##    <dbl>     <dbl>      <dbl>
    ##  1  1880      8.16      0.344
    ##  2  1881      8.18      0.340
    ##  3  1882      8.25      0.333
    ##  4  1883      8.28      0.330
    ##  5  1884      8.36      0.322
    ##  6  1885      8.40      0.317
    ##  7  1886      8.43      0.313
    ##  8  1887      8.46      0.299
    ##  9  1888      8.52      0.304
    ## 10  1889      8.53      0.301
    ## # ℹ 128 more rows
