…
# pivot from wider to longer
(song_long <- song_row |> 
    pivot_longer(
        cols = 10:ncol(df), 
        names_to = "Country", 
        values_to = "rank"
    ) |> 
    filter(!is.na(rank)) |> # filter empty rows
    arrange(rank) # sort by top rank first
)
```

    ## # A tibble: 33 × 11
    ##      Pos `P+`  Artist       Title  Days    Pk `(x?)`   Pts `Pts+`
    ##    <dbl> <chr> <chr>        <chr> <dbl> <dbl> <chr>  <dbl>  <dbl>
    ##  1     2 =     "Alex Warre… " Or…   181     1 (x48)  16325    234
    ##  2     2 =     "Alex Warre… " Or…   181     1 (x48)  16325    234
    ##  3     2 =     "Alex Warre… " Or…   181     1 (x48)  16325    234
    ##  4     2 =     "Alex Warre… " Or…   181     1 (x48)  16325    234
    ##  5     2 =     "Alex Warre… " Or…   181     1 (x48)  16325    234
    ##  6     2 =     "Alex Warre… " Or…   181     1 (x48)  16325    234
    ##  7     2 =     "Alex Warre… " Or…   181     1 (x48)  16325    234
    ##  8     2 =     "Alex Warre… " Or…   181     1 (x48)  16325    234
    ##  9     2 =     "Alex Warre… " Or…   181     1 (x48)  16325    234
    ## 10     2 =     "Alex Warre… " Or…   181     1 (x48)  16325    234
    ## # ℹ 23 more rows
    ## # ℹ 2 more variables: Country <chr>, rank <dbl>
…
